^C:\USERS\MARCIN\DESKTOP\CPP\TESTVS\TESTVS\X64\DEBUG\RCC\QRC_TESTVS.CPP
C:\USERS\MARCIN\DESKTOP\CPP\TESTVS\TESTVS\X64\DEBUG\VC142.PDB
C:\USERS\MARCIN\DESKTOP\CPP\TESTVS\TESTVS\X64\DEBUG\QRC_TESTVS.OBJ
^C:\USERS\MARCIN\DESKTOP\CPP\TESTVS\TESTVS\MYCITY.CPP|C:\USERS\MARCIN\DESKTOP\CPP\TESTVS\TESTVS\TESTVS.CPP
C:\USERS\MARCIN\DESKTOP\CPP\TESTVS\TESTVS\X64\DEBUG\TESTVS.OBJ
^C:\USERS\MARCIN\DESKTOP\CPP\TESTVS\TESTVS\MAIN.CPP|C:\USERS\MARCIN\DESKTOP\CPP\TESTVS\TESTVS\MYCITY.CPP|C:\USERS\MARCIN\DESKTOP\CPP\TESTVS\TESTVS\TESTVS.CPP
C:\USERS\MARCIN\DESKTOP\CPP\TESTVS\TESTVS\X64\DEBUG\MAIN.OBJ
C:\USERS\MARCIN\DESKTOP\CPP\TESTVS\TESTVS\X64\DEBUG\TESTVS.OBJ
C:\USERS\MARCIN\DESKTOP\CPP\TESTVS\TESTVS\X64\DEBUG\MYCITY.OBJ
^C:\USERS\MARCIN\DESKTOP\CPP\TESTVS\TESTVS\MYCITY.CPP
C:\USERS\MARCIN\DESKTOP\CPP\TESTVS\TESTVS\X64\DEBUG\VC142.PDB
^C:\USERS\MARCIN\DESKTOP\CPP\TESTVS\TESTVS\GRAF.CPP|C:\USERS\MARCIN\DESKTOP\CPP\TESTVS\TESTVS\MAIN.CPP|C:\USERS\MARCIN\DESKTOP\CPP\TESTVS\TESTVS\TESTVS.CPP
C:\USERS\MARCIN\DESKTOP\CPP\TESTVS\TESTVS\X64\DEBUG\TESTVS.OBJ
C:\USERS\MARCIN\DESKTOP\CPP\TESTVS\TESTVS\X64\DEBUG\MAIN.OBJ
C:\USERS\MARCIN\DESKTOP\CPP\TESTVS\TESTVS\X64\DEBUG\GRAF.OBJ
^C:\USERS\MARCIN\DESKTOP\CPP\TESTVS\TESTVS\GRAF.CPP
C:\USERS\MARCIN\DESKTOP\CPP\TESTVS\TESTVS\X64\DEBUG\VC142.PDB
C:\USERS\MARCIN\DESKTOP\CPP\TESTVS\TESTVS\X64\DEBUG\GRAF.OBJ
^C:\USERS\MARCIN\DESKTOP\CPP\TESTVS\TESTVS\MAIN.CPP|C:\USERS\MARCIN\DESKTOP\CPP\TESTVS\TESTVS\TESTVS.CPP
C:\USERS\MARCIN\DESKTOP\CPP\TESTVS\TESTVS\X64\DEBUG\TESTVS.OBJ
C:\USERS\MARCIN\DESKTOP\CPP\TESTVS\TESTVS\X64\DEBUG\MAIN.OBJ
^C:\USERS\MARCIN\DESKTOP\CPP\TESTVS\TESTVS\MAIN.CPP
C:\USERS\MARCIN\DESKTOP\CPP\TESTVS\TESTVS\X64\DEBUG\VC142.PDB
^C:\USERS\MARCIN\DESKTOP\CPP\TESTVS\TESTVS\X64\DEBUG\MOC\MOC_TESTVS.CPP
C:\USERS\MARCIN\DESKTOP\CPP\TESTVS\TESTVS\X64\DEBUG\VC142.PDB
C:\USERS\MARCIN\DESKTOP\CPP\TESTVS\TESTVS\X64\DEBUG\MOC_TESTVS.OBJ
^C:\USERS\MARCIN\DESKTOP\CPP\TESTVS\TESTVS\TESTVS.CPP
C:\USERS\MARCIN\DESKTOP\CPP\TESTVS\TESTVS\X64\DEBUG\VC142.PDB
C:\USERS\MARCIN\DESKTOP\CPP\TESTVS\TESTVS\X64\DEBUG\TESTVS.OBJ
^C:\USERS\MARCIN\DESKTOP\PROJECTS\TESTVS\TESTVS\GRAF.CPP|C:\USERS\MARCIN\DESKTOP\PROJECTS\TESTVS\TESTVS\MAIN.CPP|C:\USERS\MARCIN\DESKTOP\PROJECTS\TESTVS\TESTVS\MYCITY.CPP|C:\USERS\MARCIN\DESKTOP\PROJECTS\TESTVS\TESTVS\TESTVS.CPP
C:\USERS\MARCIN\DESKTOP\PROJECTS\TESTVS\TESTVS\X64\DEBUG\TESTVS.OBJ
C:\USERS\MARCIN\DESKTOP\PROJECTS\TESTVS\TESTVS\X64\DEBUG\MAIN.OBJ
C:\USERS\MARCIN\DESKTOP\PROJECTS\TESTVS\TESTVS\X64\DEBUG\GRAF.OBJ
C:\USERS\MARCIN\DESKTOP\PROJECTS\TESTVS\TESTVS\X64\DEBUG\MYCITY.OBJ
^C:\USERS\MARCIN\DESKTOP\PROJECTS\TESTVS\TESTVS\GRAF.CPP
C:\USERS\MARCIN\DESKTOP\PROJECTS\TESTVS\TESTVS\X64\DEBUG\VC142.PDB
^C:\USERS\MARCIN\DESKTOP\PROJECTS\TESTVS\TESTVS\MYCITY.CPP
C:\USERS\MARCIN\DESKTOP\PROJECTS\TESTVS\TESTVS\X64\DEBUG\VC142.PDB
^C:\USERS\MARCIN\DESKTOP\PROJECTS\TESTVS\TESTVS\MAIN.CPP
C:\USERS\MARCIN\DESKTOP\PROJECTS\TESTVS\TESTVS\X64\DEBUG\VC142.PDB
^C:\USERS\MARCIN\DESKTOP\PROJECTS\TESTVS\TESTVS\X64\DEBUG\MOC\MOC_TESTVS.CPP
C:\USERS\MARCIN\DESKTOP\PROJECTS\TESTVS\TESTVS\X64\DEBUG\VC142.PDB
C:\USERS\MARCIN\DESKTOP\PROJECTS\TESTVS\TESTVS\X64\DEBUG\MOC_TESTVS.OBJ
^C:\USERS\MARCIN\DESKTOP\PROJECTS\TESTVS\TESTVS\X64\DEBUG\RCC\QRC_TESTVS.CPP
C:\USERS\MARCIN\DESKTOP\PROJECTS\TESTVS\TESTVS\X64\DEBUG\VC142.PDB
C:\USERS\MARCIN\DESKTOP\PROJECTS\TESTVS\TESTVS\X64\DEBUG\QRC_TESTVS.OBJ
^C:\USERS\MARCIN\DESKTOP\PROJECTS\TESTVS\TESTVS\TESTVS.CPP
C:\USERS\MARCIN\DESKTOP\PROJECTS\TESTVS\TESTVS\X64\DEBUG\VC142.PDB
C:\USERS\MARCIN\DESKTOP\PROJECTS\TESTVS\TESTVS\X64\DEBUG\TESTVS.OBJ
